%YAML 1.1
%TAG !u! tag:unity3d.com,2011:
--- !u!28 &-7576501109952789561
Texture2D:
  m_ObjectHideFlags: 0
  m_CorrespondingSourceObject: {fileID: 0}
  m_PrefabInstance: {fileID: 0}
  m_PrefabAsset: {fileID: 0}
  m_Name: ConcertOne-Regular Atlas
  m_ImageContentsHash:
    serializedVersion: 2
    Hash: 00000000000000000000000000000000
  m_ForcedFallbackFormat: 4
  m_DownscaleFallback: 0
  m_IsAlphaChannelOptional: 0
  serializedVersion: 2
  m_Width: 0
  m_Height: 0
  m_CompleteImageSize: 0
  m_MipsStripped: 0
  m_TextureFormat: 1
  m_MipCount: 1
  m_IsReadable: 1
  m_IsPreProcessed: 0
  m_IgnoreMasterTextureLimit: 0
  m_StreamingMipmaps: 0
  m_StreamingMipmapsPriority: 0
  m_VTOnly: 0
  m_AlphaIsTransparency: 0
  m_ImageCount: 1
  m_TextureDimension: 2
  m_TextureSettings:
    serializedVersion: 2
    m_FilterMode: 1
    m_Aniso: 1
    m_MipBias: 0
    m_WrapU: 0
    m_WrapV: 0
    m_WrapW: 0
  m_LightmapFormat: 0
  m_ColorSpace: 0
  m_PlatformBlob: 
  image data: 0
  _typelessdata: 
  m_StreamData:
    serializedVersion: 2
    offset: 0
    size: 0
    path: 
--- !u!114 &11400000
MonoBehaviour:
  m_ObjectHideFlags: 0
  m_CorrespondingSourceObject: {fileID: 0}
  m_PrefabInstance: {fileID: 0}
  m_PrefabAsset: {fileID: 0}
  m_GameObject: {fileID: 0}
  m_Enabled: 1
  m_EditorHideFlags: 0
  m_Script: {fileID: 11500000, guid: 71c1514a6bd24e1e882cebbe1904ce04, type: 3}
  m_Name: ConcertOne-Regular SDF
  m_EditorClassIdentifier: 
  hashCode: 0
  material: {fileID: 0}
  materialHashCode: 0
  m_Version: 1.1.0
  m_SourceFontFileGUID: f15857cb0033da34cb7fa0eec4d9e355
  m_SourceFontFile_EditorRef: {fileID: 12800000, guid: f15857cb0033da34cb7fa0eec4d9e355, type: 3}
  m_SourceFontFile: {fileID: 12800000, guid: f15857cb0033da34cb7fa0eec4d9e355, type: 3}
  m_AtlasPopulationMode: 1
  m_FaceInfo:
    m_FaceIndex: 0
    m_FamilyName: Concert One
    m_StyleName: Regular
    m_PointSize: 90
    m_Scale: 1
    m_LineHeight: 70.09277
    m_AscentLine: 88.11035
    m_CapLine: 62
    m_MeanLine: 44
    m_Baseline: 0
    m_DescentLine: 18.017578
    m_SuperscriptOffset: 88.11035
    m_SuperscriptSize: 0.5
    m_SubscriptOffset: 18.017578
    m_SubscriptSize: 0.5
    m_UnderlineOffset: -8.7890625
    m_UnderlineThickness: 4.3945312
    m_StrikethroughOffset: 17.6
    m_StrikethroughThickness: 4.3945312
    m_TabWidth: 35
  m_GlyphTable: []
  m_CharacterTable: []
  m_AtlasTextures:
  - {fileID: -7576501109952789561}
  m_AtlasTextureIndex: 0
  m_IsMultiAtlasTexturesEnabled: 0
  m_ClearDynamicDataOnBuild: 0
  m_UsedGlyphRects: []
  m_FreeGlyphRects:
  - m_X: 0
    m_Y: 0
    m_Width: 1023
    m_Height: 1023
  m_fontInfo:
    Name: 
    PointSize: 0
    Scale: 0
    CharacterCount: 0
    LineHeight: 0
    Baseline: 0
    Ascender: 0
    CapHeight: 0
    Descender: 0
    CenterLine: 0
    SuperscriptOffset: 0
    SubscriptOffset: 0
    SubSize: 0
    Underline: 0
    UnderlineThickness: 0
    strikethrough: 0
    strikethroughThickness: 0
    TabWidth: 0
    Padding: 0
    AtlasWidth: 0
    AtlasHeight: 0
  atlas: {fileID: 0}
  m_AtlasWidth: 1024
  m_AtlasHeight: 1024
  m_AtlasPadding: 9
  m_AtlasRenderMode: 4165
  m_glyphInfoList: []
  m_KerningTable:
    kerningPairs: []
  m_FontFeatureTable:
    m_GlyphPairAdjustmentRecords: []
  fallbackFontAssets: []
  m_FallbackFontAssetTable: []
  m_CreationSettings:
    sourceFontFileName: 
    sourceFontFileGUID: 
    pointSizeSamplingMode: 0
    pointSize: 0
    padding: 0
    packingMode: 0
    atlasWidth: 0
    atlasHeight: 0
    characterSetSelectionMode: 0
    characterSequence: 
    referencedFontAssetGUID: 
    referencedTextAssetGUID: 
    fontStyle: 0
    fontStyleModifier: 0
    renderMode: 0
    includeFontFeatures: 0
  m_FontWeightTable:
  - regularTypeface: {fileID: 0}
    italicTypeface: {fileID: 0}
  - regularTypeface: {fileID: 0}
    italicTypeface: {fileID: 0}
  - regularTypeface: {fileID: 0}
    italicTypeface: {fileID: 0}
  - regularTypeface: {fileID: 0}
    italicTypeface: {fileID: 0}
  - regularTypeface: {fileID: 0}
    italicTypeface: {fileID: 0}
  - regularTypeface: {fileID: 0}
    italicTypeface: {fileID: 0}
  - regularTypeface: {fileID: 0}
    italicTypeface: {fileID: 0}
  - regularTypeface: {fileID: 0}
    italicTypeface: {fileID: 0}
  - regularTypeface: {fileID: 0}
    italicTypeface: {fileID: 0}
  - regularTypeface: {fileID: 0}
    italicTypeface: {fileID: 0}
  fontWeights: []
  normalStyle: 0
  normalSpacingOffset: 0
  boldStyle: 0.75
  boldSpacing: 7
  italicStyle: 35
  tabSize: 10
